<svg width="30" height="31" viewBox="0 0 30 31" fill="none" xmlns="http://www.w3.org/2000/svg">
<path d="M25 6.86792H5C4.30964 6.86792 3.75 7.42756 3.75 8.11792V23.1179C3.75 23.8083 4.30964 24.3679 5 24.3679H25C25.6904 24.3679 26.25 23.8083 26.25 23.1179V8.11792C26.25 7.42756 25.6904 6.86792 25 6.86792Z" stroke="#00BFA6" stroke-width="2" stroke-linecap="round" stroke-linejoin="round"/>
<path d="M3.75 8.11792L15.3214 16.8679L26.25 8.11792" stroke="#00BFA6" stroke-width="2" stroke-linecap="round" stroke-linejoin="round"/>
</svg>
