<svg width="71" height="51" viewBox="0 0 71 51" fill="none" xmlns="http://www.w3.org/2000/svg">
<g clip-path="url(#clip0_31_89)">
<path d="M0.0253906 10.0704V36.7379H19.4613V41.1654H35.0254V36.7379H70.0254V10.0704H0.0253906ZM19.4613 32.2704H15.5873V18.9379H11.6913V32.2704H3.92133V14.5104H19.4613V32.2704ZM31.1295 32.2704V36.7379H23.3595V14.5104H38.9235V32.2829H31.1295V32.2704ZM66.1404 32.2704H62.2554V18.9379H58.3595V32.2704H54.4635V18.9379H50.5895V32.2704H42.7954V14.5104H66.1404V32.2704ZM31.1295 18.9504H35.0254V27.8429H31.1295V18.9504Z" fill="#3f3d56"/>
</g>
<defs>
<clipPath id="clip0_31_89">
<rect width="70" height="50" fill="white" transform="translate(0.0253906 0.61792)"/>
</clipPath>
</defs>
</svg>
